^J:\O_P_I\WORK\DZ2\DZ2\PROJECT1\MAIN.CPP|J:\O_P_I\WORK\DZ2\DZ2\PROJECT1\MAIN2.CPP
J:\O_P_I\WORK\DZ2\DZ2\PROJECT1\X64\DEBUG\VC142.PDB
J:\O_P_I\WORK\DZ2\DZ2\PROJECT1\X64\DEBUG\VC142.IDB
J:\O_P_I\WORK\DZ2\DZ2\PROJECT1\X64\DEBUG\MAIN.OBJ
^J:\O_P_I\WORK\DZ2\DZ2\PROJECT1\MAIN.CPP
J:\O_P_I\WORK\DZ2\DZ2\PROJECT1\X64\DEBUG\VC142.PDB
J:\O_P_I\WORK\DZ2\DZ2\PROJECT1\X64\DEBUG\VC142.IDB
J:\O_P_I\WORK\DZ2\DZ2\PROJECT1\X64\DEBUG\MAIN.OBJ
^J:\O_P_I\WORK\FAKE_DZ2\DZ2_PART1\PROJECT1\MAIN.CPP
J:\O_P_I\WORK\FAKE_DZ2\DZ2_PART1\PROJECT1\X64\DEBUG\VC142.PDB
J:\O_P_I\WORK\FAKE_DZ2\DZ2_PART1\PROJECT1\X64\DEBUG\VC142.IDB
J:\O_P_I\WORK\FAKE_DZ2\DZ2_PART1\PROJECT1\X64\DEBUG\MAIN.OBJ
^J:\O_P_I\WORK\FAKE_DZ2\DZ2_PART2\PROJECT1\MAIN.CPP
J:\O_P_I\WORK\FAKE_DZ2\DZ2_PART2\PROJECT1\X64\DEBUG\VC142.PDB
J:\O_P_I\WORK\FAKE_DZ2\DZ2_PART2\PROJECT1\X64\DEBUG\VC142.IDB
J:\O_P_I\WORK\FAKE_DZ2\DZ2_PART2\PROJECT1\X64\DEBUG\MAIN.OBJ
