^J:\O_P_I\WORK\DZ2\DZ2\PROJECT1\X64\DEBUG\MAIN.OBJ
/OUT:"J:\O_P_I\WORK\DZ2\DZ2\X64\DEBUG\PROJECT1.EXE" /INCREMENTAL /NOLOGO KERNEL32.LIB USER32.LIB GDI32.LIB WINSPOOL.LIB COMDLG32.LIB ADVAPI32.LIB SHELL32.LIB OLE32.LIB OLEAUT32.LIB UUID.LIB ODBC32.LIB ODBCCP32.LIB /MANIFEST /MANIFESTUAC:"level='asInvoker' uiAccess='false'" /manifest:embed /DEBUG:FASTLINK /PDB:"J:\O_P_I\WORK\DZ2\DZ2\X64\DEBUG\PROJECT1.PDB" /SUBSYSTEM:CONSOLE /TLBID:1 /DYNAMICBASE /NXCOMPAT /IMPLIB:"J:\O_P_I\WORK\DZ2\DZ2\X64\DEBUG\PROJECT1.LIB" /MACHINE:X64 X64\DEBUG\MAIN.OBJ
^J:\O_P_I\WORK\FAKE_DZ2\DZ2_PART1\PROJECT1\X64\DEBUG\MAIN.OBJ
/OUT:"J:\O_P_I\WORK\FAKE_DZ2\DZ2_PART1\X64\DEBUG\PROJECT1.EXE" /INCREMENTAL /NOLOGO KERNEL32.LIB USER32.LIB GDI32.LIB WINSPOOL.LIB COMDLG32.LIB ADVAPI32.LIB SHELL32.LIB OLE32.LIB OLEAUT32.LIB UUID.LIB ODBC32.LIB ODBCCP32.LIB /MANIFEST /MANIFESTUAC:"level='asInvoker' uiAccess='false'" /manifest:embed /DEBUG:FASTLINK /PDB:"J:\O_P_I\WORK\FAKE_DZ2\DZ2_PART1\X64\DEBUG\PROJECT1.PDB" /SUBSYSTEM:CONSOLE /TLBID:1 /DYNAMICBASE /NXCOMPAT /IMPLIB:"J:\O_P_I\WORK\FAKE_DZ2\DZ2_PART1\X64\DEBUG\PROJECT1.LIB" /MACHINE:X64 X64\DEBUG\MAIN.OBJ
^J:\O_P_I\WORK\FAKE_DZ2\DZ2_PART2\PROJECT1\X64\DEBUG\MAIN.OBJ
/OUT:"J:\O_P_I\WORK\FAKE_DZ2\DZ2_PART2\X64\DEBUG\PROJECT1.EXE" /INCREMENTAL /NOLOGO KERNEL32.LIB USER32.LIB GDI32.LIB WINSPOOL.LIB COMDLG32.LIB ADVAPI32.LIB SHELL32.LIB OLE32.LIB OLEAUT32.LIB UUID.LIB ODBC32.LIB ODBCCP32.LIB /MANIFEST /MANIFESTUAC:"level='asInvoker' uiAccess='false'" /manifest:embed /DEBUG:FASTLINK /PDB:"J:\O_P_I\WORK\FAKE_DZ2\DZ2_PART2\X64\DEBUG\PROJECT1.PDB" /SUBSYSTEM:CONSOLE /TLBID:1 /DYNAMICBASE /NXCOMPAT /IMPLIB:"J:\O_P_I\WORK\FAKE_DZ2\DZ2_PART2\X64\DEBUG\PROJECT1.LIB" /MACHINE:X64 X64\DEBUG\MAIN.OBJ
