^J:\O_P_I\WORK\DZ2\DZ2\PROJECT1\X64\DEBUG\MAIN.OBJ
J:\O_P_I\WORK\DZ2\DZ2\X64\DEBUG\PROJECT1.EXE
J:\O_P_I\WORK\DZ2\DZ2\X64\DEBUG\PROJECT1.ILK
J:\O_P_I\WORK\DZ2\DZ2\X64\DEBUG\PROJECT1.PDB
^J:\O_P_I\WORK\FAKE_DZ2\DZ2_PART1\PROJECT1\X64\DEBUG\MAIN.OBJ
J:\O_P_I\WORK\FAKE_DZ2\DZ2_PART1\X64\DEBUG\PROJECT1.EXE
J:\O_P_I\WORK\FAKE_DZ2\DZ2_PART1\X64\DEBUG\PROJECT1.ILK
J:\O_P_I\WORK\FAKE_DZ2\DZ2_PART1\X64\DEBUG\PROJECT1.PDB
^J:\O_P_I\WORK\FAKE_DZ2\DZ2_PART2\PROJECT1\X64\DEBUG\MAIN.OBJ
J:\O_P_I\WORK\FAKE_DZ2\DZ2_PART2\X64\DEBUG\PROJECT1.EXE
J:\O_P_I\WORK\FAKE_DZ2\DZ2_PART2\X64\DEBUG\PROJECT1.ILK
J:\O_P_I\WORK\FAKE_DZ2\DZ2_PART2\X64\DEBUG\PROJECT1.PDB
