^J:\O_P_I\WORK\DZ2\DZ2\UNITTEST1\PCH.CPP
/c /I"C:\PROGRAM FILES (X86)\MICROSOFT VISUAL STUDIO\2019\COMMUNITY\VC\UNITTEST\INCLUDE" /ZI /JMC /nologo /W3 /WX- /diagnostics:column /sdl /Od /D _DEBUG /D _WINDLL /D _UNICODE /D UNICODE /Gm- /EHsc /RTC1 /MDd /GS /fp:precise /Zc:wchar_t /Zc:forScope /Zc:inline /Yc"pch.h" /Fp"X64\DEBUG\UNITTEST1.PCH" /Fo"X64\DEBUG\\" /Fd"X64\DEBUG\VC142.PDB" /Gd /TP /FC J:\O_P_I\WORK\DZ2\DZ2\UNITTEST1\PCH.CPP
^J:\O_P_I\WORK\DZ2\DZ2\UNITTEST1\UNITTEST1.CPP
/c /I"C:\PROGRAM FILES (X86)\MICROSOFT VISUAL STUDIO\2019\COMMUNITY\VC\UNITTEST\INCLUDE" /ZI /JMC /nologo /W3 /WX- /diagnostics:column /sdl /Od /D _DEBUG /D _WINDLL /D _UNICODE /D UNICODE /Gm- /EHsc /RTC1 /MDd /GS /fp:precise /Zc:wchar_t /Zc:forScope /Zc:inline /Yu"pch.h" /Fp"X64\DEBUG\UNITTEST1.PCH" /Fo"X64\DEBUG\\" /Fd"X64\DEBUG\VC142.PDB" /Gd /TP /FC J:\O_P_I\WORK\DZ2\DZ2\UNITTEST1\UNITTEST1.CPP
