^J:\O_P_I\WORK\DZ2\DZ2\UNITTEST1\PCH.CPP
J:\O_P_I\WORK\DZ2\DZ2\UNITTEST1\X64\DEBUG\UNITTEST1.PCH
J:\O_P_I\WORK\DZ2\DZ2\UNITTEST1\X64\DEBUG\VC142.PDB
J:\O_P_I\WORK\DZ2\DZ2\UNITTEST1\X64\DEBUG\VC142.IDB
J:\O_P_I\WORK\DZ2\DZ2\UNITTEST1\X64\DEBUG\PCH.OBJ
^J:\O_P_I\WORK\DZ2\DZ2\UNITTEST1\UNITTEST1.CPP
J:\O_P_I\WORK\DZ2\DZ2\UNITTEST1\X64\DEBUG\VC142.PDB
J:\O_P_I\WORK\DZ2\DZ2\UNITTEST1\X64\DEBUG\VC142.IDB
J:\O_P_I\WORK\DZ2\DZ2\UNITTEST1\X64\DEBUG\UNITTEST1.OBJ
