^J:\O_P_I\WORK\DZ2\DZ2\UNITTEST1\X64\DEBUG\PCH.OBJ|J:\O_P_I\WORK\DZ2\DZ2\UNITTEST1\X64\DEBUG\UNITTEST1.OBJ
/OUT:"J:\O_P_I\WORK\DZ2\DZ2\X64\DEBUG\UNITTEST1.DLL" /INCREMENTAL /NOLOGO /LIBPATH:"C:\PROGRAM FILES (X86)\MICROSOFT VISUAL STUDIO\2019\COMMUNITY\VC\UNITTEST\LIB" KERNEL32.LIB USER32.LIB GDI32.LIB WINSPOOL.LIB COMDLG32.LIB ADVAPI32.LIB SHELL32.LIB OLE32.LIB OLEAUT32.LIB UUID.LIB ODBC32.LIB ODBCCP32.LIB /MANIFEST /MANIFESTUAC:"level='asInvoker' uiAccess='false'" /manifest:embed /DEBUG:FASTLINK /PDB:"J:\O_P_I\WORK\DZ2\DZ2\X64\DEBUG\UNITTEST1.PDB" /SUBSYSTEM:WINDOWS /TLBID:1 /DYNAMICBASE /NXCOMPAT /IMPLIB:"J:\O_P_I\WORK\DZ2\DZ2\X64\DEBUG\UNITTEST1.LIB" /MACHINE:X64 /DLL X64\DEBUG\PCH.OBJ
X64\DEBUG\UNITTEST1.OBJ
