^J:\O_P_I\Work\Dz2\Dz2\UnitTest1\UnitTest1.vcxproj
J:\O_P_I\Work\Dz2\Dz2\x64\Debug\UnitTest1.lib
J:\O_P_I\Work\Dz2\Dz2\x64\Debug\UnitTest1.exp
^J:\O_P_I\Work\Dz2\Dz2\UnitTest1\UnitTest1.vcxproj
J:\O_P_I\Work\Dz2\Dz2\x64\Debug\UnitTest1.lib
J:\O_P_I\Work\Dz2\Dz2\x64\Debug\UnitTest1.exp
^J:\O_P_I\Work\Dz2\Dz2\UnitTest1\UnitTest1.vcxproj
J:\O_P_I\Work\Dz2\Dz2\x64\Debug\UnitTest1.lib
J:\O_P_I\Work\Dz2\Dz2\x64\Debug\UnitTest1.exp
^J:\O_P_I\Work\Dz2\Dz2\UnitTest1\UnitTest1.vcxproj
J:\O_P_I\Work\Dz2\Dz2\x64\Debug\UnitTest1.lib
J:\O_P_I\Work\Dz2\Dz2\x64\Debug\UnitTest1.exp
^J:\O_P_I\Work\Dz2\Dz2\UnitTest1\UnitTest1.vcxproj
J:\O_P_I\Work\Dz2\Dz2\x64\Debug\UnitTest1.lib
J:\O_P_I\Work\Dz2\Dz2\x64\Debug\UnitTest1.exp
